HLTRMakerAlg.HLTResultMTMaker.StreamT...0   0     DEBUG Chain HLT_e5_etcut_pebtestone ID#2665696149 adds PEBInfo ROBs = [0x42002e, 0x420060, 0x420064, 0x7c0000], SubDets = [] to stream physics_pebtestone
HLTRMakerAlg.HLTResultMTMaker.StreamT...0   0     DEBUG Chain HLT_e3_etcut_pebtestone ID#3649724623 adds PEBInfo ROBs = [0x42002e, 0x420060, 0x420064, 0x7c0000], SubDets = [] to stream physics_pebtestone
HLTRMakerAlg.HLTResultMTMaker.StreamT...0   0     DEBUG Chain HLT_e5_etcut_pebtestfour ID#55532747 adds PEBInfo ROBs = [0x111709, 0x111749, 0x111750, 0x112558, 0x120217, 0x120219, 0x121615, 0x130107, 0x130108, 0x140090, 0x140091, 0x140093, 0x210101, 0x210102, 0x230000, 0x230001, 0x230002, 0x230005, 0x23000a, 0x23000b, 0x23000d, 0x23000e, 0x23000f, 0x330901, 0x330902, 0x330a01, 0x330a02, 0x530008, 0x530009, 0x630012, 0x63001a, 0x630031, 0x630052, 0x63005a, 0x670004, 0x670005, 0x7c0000], SubDets = [] to stream physics_pebtestfour
--> Stream tags  = {pebtestone, physics, obeysLB=1, robs=[0x0042002e 0x00420060 0x00420064 0x007c0000 ], dets = []}
                   {Main, physics, obeysLB=1, robs=[], dets = []}
                   {pebtestfour, physics, obeysLB=1, robs=[0x00111709 0x00111749 0x00111750 0x00112558 0x00120217 0x00120219 0x00121615 0x00130107 0x00130108 0x00140090 0x00140091 0x00140093 0x00210101 0x00210102 0x00230000 0x00230001 0x00230002 0x00230005 0x0023000a 0x0023000b 0x0023000d 0x0023000e 0x0023000f 0x00330901 0x00330902 0x00330a01 0x00330a02 0x00530008 0x00530009 0x00630012 0x0063001a 0x00630031 0x00630052 0x0063005a 0x00670004 0x00670005 0x007c0000 ], dets = []}
HLTRMakerAlg.HLTResultMTMaker.StreamT...1   0     DEBUG Chain HLT_e5_etcut_pebtestone ID#2665696149 adds PEBInfo ROBs = [0x42002e, 0x420060, 0x420064, 0x7c0000], SubDets = [] to stream physics_pebtestone
HLTRMakerAlg.HLTResultMTMaker.StreamT...1   0     DEBUG Chain HLT_e3_etcut_pebtestone ID#3649724623 adds PEBInfo ROBs = [0x42002e, 0x420060, 0x420064, 0x7c0000], SubDets = [] to stream physics_pebtestone
HLTRMakerAlg.HLTResultMTMaker.StreamT...1   0     DEBUG Chain HLT_e5_etcut_pebtestfour ID#55532747 adds PEBInfo ROBs = [0x111805, 0x111806, 0x111807, 0x111808, 0x111845, 0x111846, 0x111849, 0x111851, 0x112445, 0x112514, 0x112515, 0x112554, 0x112555, 0x112560, 0x120215, 0x120217, 0x121615, 0x130111, 0x130114, 0x130115, 0x130307, 0x130308, 0x130309, 0x130310, 0x140060, 0x140061, 0x140062, 0x140063, 0x140100, 0x140101, 0x140103, 0x140110, 0x140111, 0x140113, 0x210008, 0x21000a, 0x21000b, 0x220008, 0x22000a, 0x22000b, 0x230002, 0x230003, 0x230004, 0x230005, 0x230006, 0x230007, 0x230105, 0x23010b, 0x310300, 0x310400, 0x310500, 0x510002, 0x510003, 0x610001, 0x610008, 0x610018, 0x630023, 0x650001, 0x670005, 0x670006, 0x690086, 0x7c0000], SubDets = [] to stream physics_pebtestfour
--> Stream tags  = {pebtestone, physics, obeysLB=1, robs=[0x0042002e 0x00420060 0x00420064 0x007c0000 ], dets = []}
                   {Main, physics, obeysLB=1, robs=[], dets = []}
                   {pebtestfour, physics, obeysLB=1, robs=[0x00111805 0x00111806 0x00111807 0x00111808 0x00111845 0x00111846 0x00111849 0x00111851 0x00112445 0x00112514 0x00112515 0x00112554 0x00112555 0x00112560 0x00120215 0x00120217 0x00121615 0x00130111 0x00130114 0x00130115 0x00130307 0x00130308 0x00130309 0x00130310 0x00140060 0x00140061 0x00140062 0x00140063 0x00140100 0x00140101 0x00140103 0x00140110 0x00140111 0x00140113 0x00210008 0x0021000a 0x0021000b 0x00220008 0x0022000a 0x0022000b 0x00230002 0x00230003 0x00230004 0x00230005 0x00230006 0x00230007 0x00230105 0x0023010b 0x00310300 0x00310400 0x00310500 0x00510002 0x00510003 0x00610001 0x00610008 0x00610018 0x00630023 0x00650001 0x00670005 0x00670006 0x00690086 0x007c0000 ], dets = []}
HLTRMakerAlg.HLTResultMTMaker.StreamT...2   0     DEBUG Chain HLT_e5_etcut_pebtestone ID#2665696149 adds PEBInfo ROBs = [0x42002e, 0x420060, 0x420064, 0x7c0000], SubDets = [] to stream physics_pebtestone
HLTRMakerAlg.HLTResultMTMaker.StreamT...2   0     DEBUG Chain HLT_e3_etcut_pebtestone ID#3649724623 adds PEBInfo ROBs = [0x42002e, 0x420060, 0x420064, 0x7c0000], SubDets = [] to stream physics_pebtestone
HLTRMakerAlg.HLTResultMTMaker.StreamT...2   0     DEBUG Chain HLT_e5_etcut_pebtestfour ID#55532747 adds PEBInfo ROBs = [0x111720, 0x111721, 0x111758, 0x111759, 0x111760, 0x111761, 0x111805, 0x111806, 0x111807, 0x111808, 0x111820, 0x111821, 0x111858, 0x111859, 0x111860, 0x111861, 0x112418, 0x112419, 0x112420, 0x112421, 0x112456, 0x112457, 0x112460, 0x112461, 0x112511, 0x112512, 0x112514, 0x112515, 0x130016, 0x130017, 0x130018, 0x130019, 0x130020, 0x130021, 0x130105, 0x130106, 0x130307, 0x130308, 0x130309, 0x130310, 0x140060, 0x140061, 0x140062, 0x140063, 0x140170, 0x140171, 0x140172, 0x140173, 0x140180, 0x140181, 0x140182, 0x140183, 0x140190, 0x140191, 0x140192, 0x140193, 0x140200, 0x140201, 0x140202, 0x140203, 0x210004, 0x210005, 0x210006, 0x210007, 0x210008, 0x210009, 0x21000a, 0x21000b, 0x220000, 0x220001, 0x220002, 0x220003, 0x220004, 0x220005, 0x220006, 0x220007, 0x220008, 0x220009, 0x22000a, 0x22000b, 0x240000, 0x240007, 0x310300, 0x310400, 0x320300, 0x320400, 0x321b00, 0x321c00, 0x321e00, 0x321f00, 0x322000, 0x341a01, 0x341a02, 0x341b01, 0x341b02, 0x341d01, 0x341e01, 0x510001, 0x510002, 0x510003, 0x52001c, 0x52001d, 0x52001e, 0x52001f, 0x540019, 0x54001a, 0x54001b, 0x610008, 0x620000, 0x62000f, 0x620017, 0x62001f, 0x620031, 0x640007, 0x64000e, 0x650000, 0x650001, 0x66000e, 0x66000f, 0x68000b, 0x7c0000], SubDets = [] to stream physics_pebtestfour
--> Stream tags  = {pebtestone, physics, obeysLB=1, robs=[0x0042002e 0x00420060 0x00420064 0x007c0000 ], dets = []}
                   {Main, physics, obeysLB=1, robs=[], dets = []}
                   {pebtestfour, physics, obeysLB=1, robs=[0x00111720 0x00111721 0x00111758 0x00111759 0x00111760 0x00111761 0x00111805 0x00111806 0x00111807 0x00111808 0x00111820 0x00111821 0x00111858 0x00111859 0x00111860 0x00111861 0x00112418 0x00112419 0x00112420 0x00112421 0x00112456 0x00112457 0x00112460 0x00112461 0x00112511 0x00112512 0x00112514 0x00112515 0x00130016 0x00130017 0x00130018 0x00130019 0x00130020 0x00130021 0x00130105 0x00130106 0x00130307 0x00130308 0x00130309 0x00130310 0x00140060 0x00140061 0x00140062 0x00140063 0x00140170 0x00140171 0x00140172 0x00140173 0x00140180 0x00140181 0x00140182 0x00140183 0x00140190 0x00140191 0x00140192 0x00140193 0x00140200 0x00140201 0x00140202 0x00140203 0x00210004 0x00210005 0x00210006 0x00210007 0x00210008 0x00210009 0x0021000a 0x0021000b 0x00220000 0x00220001 0x00220002 0x00220003 0x00220004 0x00220005 0x00220006 0x00220007 0x00220008 0x00220009 0x0022000a 0x0022000b 0x00240000 0x00240007 0x00310300 0x00310400 0x00320300 0x00320400 0x00321b00 0x00321c00 0x00321e00 0x00321f00 0x00322000 0x00341a01 0x00341a02 0x00341b01 0x00341b02 0x00341d01 0x00341e01 0x00510001 0x00510002 0x00510003 0x0052001c 0x0052001d 0x0052001e 0x0052001f 0x00540019 0x0054001a 0x0054001b 0x00610008 0x00620000 0x0062000f 0x00620017 0x0062001f 0x00620031 0x00640007 0x0064000e 0x00650000 0x00650001 0x0066000e 0x0066000f 0x0068000b 0x007c0000 ], dets = []}
HLTRMakerAlg.HLTResultMTMaker.StreamT...3   0     DEBUG Chain HLT_e5_etcut_pebtestone ID#2665696149 adds PEBInfo ROBs = [0x42002e, 0x420060, 0x420064, 0x7c0000], SubDets = [] to stream physics_pebtestone
HLTRMakerAlg.HLTResultMTMaker.StreamT...3   0     DEBUG Chain HLT_e3_etcut_pebtestone ID#3649724623 adds PEBInfo ROBs = [0x42002e, 0x420060, 0x420064, 0x7c0000], SubDets = [] to stream physics_pebtestone
HLTRMakerAlg.HLTResultMTMaker.StreamT...3   0     DEBUG Chain HLT_e5_etcut_pebtestfour ID#55532747 adds PEBInfo ROBs = [0x111705, 0x111706, 0x111758, 0x111759, 0x111805, 0x111806, 0x111807, 0x111808, 0x111818, 0x111819, 0x111845, 0x111846, 0x111858, 0x111859, 0x112418, 0x112419, 0x112456, 0x112457, 0x112511, 0x112512, 0x112514, 0x112515, 0x112554, 0x112555, 0x130016, 0x130017, 0x130018, 0x130019, 0x130307, 0x130308, 0x130309, 0x130310, 0x130311, 0x130312, 0x140060, 0x140061, 0x140062, 0x140063, 0x140070, 0x140071, 0x140072, 0x140073, 0x140180, 0x140181, 0x140182, 0x140183, 0x210008, 0x210009, 0x21000a, 0x21000b, 0x220000, 0x220001, 0x220003, 0x220008, 0x220009, 0x22000a, 0x22000b, 0x240000, 0x310200, 0x310300, 0x310400, 0x310500, 0x320200, 0x320300, 0x321b00, 0x321c00, 0x321d00, 0x341b01, 0x341b02, 0x341c01, 0x341c02, 0x510000, 0x510001, 0x510002, 0x510003, 0x54001a, 0x54001b, 0x610000, 0x610001, 0x610008, 0x610011, 0x610018, 0x620027, 0x62002e, 0x640007, 0x64000e, 0x650000, 0x650001, 0x650002, 0x66000d, 0x66000e, 0x68000b, 0x7c0000], SubDets = [] to stream physics_pebtestfour
--> Stream tags  = {pebtestone, physics, obeysLB=1, robs=[0x0042002e 0x00420060 0x00420064 0x007c0000 ], dets = []}
                   {Main, physics, obeysLB=1, robs=[], dets = []}
                   {pebtestfour, physics, obeysLB=1, robs=[0x00111705 0x00111706 0x00111758 0x00111759 0x00111805 0x00111806 0x00111807 0x00111808 0x00111818 0x00111819 0x00111845 0x00111846 0x00111858 0x00111859 0x00112418 0x00112419 0x00112456 0x00112457 0x00112511 0x00112512 0x00112514 0x00112515 0x00112554 0x00112555 0x00130016 0x00130017 0x00130018 0x00130019 0x00130307 0x00130308 0x00130309 0x00130310 0x00130311 0x00130312 0x00140060 0x00140061 0x00140062 0x00140063 0x00140070 0x00140071 0x00140072 0x00140073 0x00140180 0x00140181 0x00140182 0x00140183 0x00210008 0x00210009 0x0021000a 0x0021000b 0x00220000 0x00220001 0x00220003 0x00220008 0x00220009 0x0022000a 0x0022000b 0x00240000 0x00310200 0x00310300 0x00310400 0x00310500 0x00320200 0x00320300 0x00321b00 0x00321c00 0x00321d00 0x00341b01 0x00341b02 0x00341c01 0x00341c02 0x00510000 0x00510001 0x00510002 0x00510003 0x0054001a 0x0054001b 0x00610000 0x00610001 0x00610008 0x00610011 0x00610018 0x00620027 0x0062002e 0x00640007 0x0064000e 0x00650000 0x00650001 0x00650002 0x0066000d 0x0066000e 0x0068000b 0x007c0000 ], dets = []}
HLTRMakerAlg.HLTResultMTMaker.StreamT...4   0     DEBUG Chain HLT_e5_etcut_pebtestone ID#2665696149 adds PEBInfo ROBs = [0x42002e, 0x420060, 0x420064, 0x7c0000], SubDets = [] to stream physics_pebtestone
HLTRMakerAlg.HLTResultMTMaker.StreamT...4   0     DEBUG Chain HLT_e3_etcut_pebtestone ID#3649724623 adds PEBInfo ROBs = [0x42002e, 0x420060, 0x420064, 0x7c0000], SubDets = [] to stream physics_pebtestone
HLTRMakerAlg.HLTResultMTMaker.StreamT...4   0     DEBUG Chain HLT_e5_etcut_pebtestfour ID#55532747 adds PEBInfo ROBs = [0x111709, 0x111749, 0x111750, 0x111751, 0x111811, 0x112520, 0x112558, 0x112560, 0x120217, 0x120219, 0x121615, 0x130107, 0x130108, 0x130109, 0x130110, 0x140090, 0x140091, 0x140093, 0x140100, 0x140101, 0x140103, 0x210100, 0x210101, 0x210102, 0x230000, 0x230001, 0x230002, 0x230003, 0x230004, 0x230005, 0x230006, 0x23000a, 0x23000b, 0x23000d, 0x23000e, 0x23000f, 0x330901, 0x330902, 0x330a01, 0x330a02, 0x330b02, 0x530008, 0x530009, 0x630012, 0x63001a, 0x630023, 0x63002a, 0x630031, 0x630052, 0x63005a, 0x630063, 0x630071, 0x670004, 0x670005, 0x7c0000], SubDets = [] to stream physics_pebtestfour
--> Stream tags  = {pebtestone, physics, obeysLB=1, robs=[0x0042002e 0x00420060 0x00420064 0x007c0000 ], dets = []}
                   {Main, physics, obeysLB=1, robs=[], dets = []}
                   {pebtestfour, physics, obeysLB=1, robs=[0x00111709 0x00111749 0x00111750 0x00111751 0x00111811 0x00112520 0x00112558 0x00112560 0x00120217 0x00120219 0x00121615 0x00130107 0x00130108 0x00130109 0x00130110 0x00140090 0x00140091 0x00140093 0x00140100 0x00140101 0x00140103 0x00210100 0x00210101 0x00210102 0x00230000 0x00230001 0x00230002 0x00230003 0x00230004 0x00230005 0x00230006 0x0023000a 0x0023000b 0x0023000d 0x0023000e 0x0023000f 0x00330901 0x00330902 0x00330a01 0x00330a02 0x00330b02 0x00530008 0x00530009 0x00630012 0x0063001a 0x00630023 0x0063002a 0x00630031 0x00630052 0x0063005a 0x00630063 0x00630071 0x00670004 0x00670005 0x007c0000 ], dets = []}
HLTRMakerAlg.HLTResultMTMaker.StreamT...5   0     DEBUG Chain HLT_mu6_pebtesttwo ID#1084648233 adds PEBInfo ROBs = [], SubDets = [0x65, 0x66] to stream calibration_pebtesttwo
HLTRMakerAlg.HLTResultMTMaker.StreamT...5   0     DEBUG Chain HLT_e5_etcut_pebtestone ID#2665696149 adds PEBInfo ROBs = [0x42002e, 0x420060, 0x420064, 0x7c0000], SubDets = [] to stream physics_pebtestone
HLTRMakerAlg.HLTResultMTMaker.StreamT...5   0     DEBUG Chain HLT_e3_etcut_pebtestone ID#3649724623 adds PEBInfo ROBs = [0x42002e, 0x420060, 0x420064, 0x7c0000], SubDets = [] to stream physics_pebtestone
HLTRMakerAlg.HLTResultMTMaker.StreamT...5   0     DEBUG Chain HLT_mu6_pebtestfive ID#232220309 adds PEBInfo ROBs = [0x610022, 0x610023, 0x630002, 0x630009, 0x63000a, 0x650003, 0x650004, 0x650005, 0x670003, 0x670004, 0x670005, 0x7c0000], SubDets = [] to stream physics_pebtestfive
HLTRMakerAlg.HLTResultMTMaker.StreamT...5   0     DEBUG Chain HLT_e5_etcut_pebtestfour ID#55532747 adds PEBInfo ROBs = [0x111760, 0x111761, 0x111805, 0x111806, 0x111807, 0x111808, 0x111817, 0x111818, 0x111819, 0x111820, 0x111821, 0x111845, 0x111846, 0x111857, 0x111858, 0x111859, 0x111860, 0x111861, 0x112412, 0x112418, 0x112419, 0x112420, 0x112421, 0x112452, 0x112458, 0x112459, 0x112460, 0x112461, 0x112514, 0x112515, 0x112554, 0x112555, 0x120209, 0x121611, 0x130007, 0x130008, 0x130009, 0x130016, 0x130017, 0x130018, 0x130019, 0x130020, 0x130021, 0x130105, 0x130106, 0x130307, 0x130308, 0x130309, 0x130310, 0x140060, 0x140061, 0x140062, 0x140063, 0x140150, 0x140152, 0x140153, 0x140180, 0x140181, 0x140182, 0x140183, 0x140190, 0x140191, 0x140192, 0x140193, 0x140200, 0x140201, 0x140202, 0x140203, 0x210004, 0x210005, 0x210006, 0x210007, 0x210008, 0x21000a, 0x21000b, 0x220000, 0x220003, 0x220004, 0x220005, 0x220006, 0x220007, 0x220008, 0x22000a, 0x22000b, 0x240000, 0x240006, 0x240007, 0x240008, 0x240009, 0x24000a, 0x24000d, 0x240107, 0x310300, 0x310400, 0x310500, 0x321c00, 0x321d00, 0x321e00, 0x321f00, 0x322000, 0x341b01, 0x341c01, 0x341d01, 0x341e01, 0x510002, 0x510003, 0x52001a, 0x52001b, 0x52001c, 0x52001d, 0x52001e, 0x54001a, 0x54001b, 0x610001, 0x610008, 0x610018, 0x620017, 0x62001f, 0x620027, 0x62002e, 0x620031, 0x640007, 0x640025, 0x64002d, 0x650001, 0x66000d, 0x66000e, 0x66000f, 0x680009, 0x68000b, 0x6a008a, 0x6a008b, 0x7c0000], SubDets = [] to stream physics_pebtestfour
--> Stream tags  = {pebtesttwo, calibration, obeysLB=1, robs=[], dets = [0x65 0x66 ]}
                   {pebtestone, physics, obeysLB=1, robs=[0x0042002e 0x00420060 0x00420064 0x007c0000 ], dets = []}
                   {pebtestfive, physics, obeysLB=1, robs=[0x00610022 0x00610023 0x00630002 0x00630009 0x0063000a 0x00650003 0x00650004 0x00650005 0x00670003 0x00670004 0x00670005 0x007c0000 ], dets = []}
                   {Main, physics, obeysLB=1, robs=[], dets = []}
                   {pebtestfour, physics, obeysLB=1, robs=[0x00111760 0x00111761 0x00111805 0x00111806 0x00111807 0x00111808 0x00111817 0x00111818 0x00111819 0x00111820 0x00111821 0x00111845 0x00111846 0x00111857 0x00111858 0x00111859 0x00111860 0x00111861 0x00112412 0x00112418 0x00112419 0x00112420 0x00112421 0x00112452 0x00112458 0x00112459 0x00112460 0x00112461 0x00112514 0x00112515 0x00112554 0x00112555 0x00120209 0x00121611 0x00130007 0x00130008 0x00130009 0x00130016 0x00130017 0x00130018 0x00130019 0x00130020 0x00130021 0x00130105 0x00130106 0x00130307 0x00130308 0x00130309 0x00130310 0x00140060 0x00140061 0x00140062 0x00140063 0x00140150 0x00140152 0x00140153 0x00140180 0x00140181 0x00140182 0x00140183 0x00140190 0x00140191 0x00140192 0x00140193 0x00140200 0x00140201 0x00140202 0x00140203 0x00210004 0x00210005 0x00210006 0x00210007 0x00210008 0x0021000a 0x0021000b 0x00220000 0x00220003 0x00220004 0x00220005 0x00220006 0x00220007 0x00220008 0x0022000a 0x0022000b 0x00240000 0x00240006 0x00240007 0x00240008 0x00240009 0x0024000a 0x0024000d 0x00240107 0x00310300 0x00310400 0x00310500 0x00321c00 0x00321d00 0x00321e00 0x00321f00 0x00322000 0x00341b01 0x00341c01 0x00341d01 0x00341e01 0x00510002 0x00510003 0x0052001a 0x0052001b 0x0052001c 0x0052001d 0x0052001e 0x0054001a 0x0054001b 0x00610001 0x00610008 0x00610018 0x00620017 0x0062001f 0x00620027 0x0062002e 0x00620031 0x00640007 0x00640025 0x0064002d 0x00650001 0x0066000d 0x0066000e 0x0066000f 0x00680009 0x0068000b 0x006a008a 0x006a008b 0x007c0000 ], dets = []}
HLTRMakerAlg.HLTResultMTMaker.StreamT...6   0     DEBUG Chain HLT_mu6_pebtesttwo ID#1084648233 adds PEBInfo ROBs = [], SubDets = [0x65, 0x66] to stream calibration_pebtesttwo
HLTRMakerAlg.HLTResultMTMaker.StreamT...6   0     DEBUG Chain HLT_e5_etcut_pebtestone ID#2665696149 adds PEBInfo ROBs = [0x42002e, 0x420060, 0x420064, 0x7c0000], SubDets = [] to stream physics_pebtestone
HLTRMakerAlg.HLTResultMTMaker.StreamT...6   0     DEBUG Chain HLT_e3_etcut_pebtestone ID#3649724623 adds PEBInfo ROBs = [0x42002e, 0x420060, 0x420064, 0x7c0000], SubDets = [] to stream physics_pebtestone
HLTRMakerAlg.HLTResultMTMaker.StreamT...6   0     DEBUG Chain HLT_mu6_pebtestfive ID#232220309 adds PEBInfo ROBs = [0x610000, 0x610001, 0x610008, 0x610009, 0x650000, 0x650001, 0x650002, 0x650003, 0x7c0000], SubDets = [] to stream physics_pebtestfive
HLTRMakerAlg.HLTResultMTMaker.StreamT...6   0     DEBUG Chain HLT_e5_etcut_pebtestfour ID#55532747 adds PEBInfo ROBs = [0x111711, 0x111712, 0x111747, 0x111748, 0x112556, 0x112557, 0x130314, 0x130315, 0x130316, 0x130317, 0x140080, 0x140081, 0x140082, 0x140083, 0x21000c, 0x21000d, 0x21000e, 0x21000f, 0x23000e, 0x23000f, 0x310700, 0x310800, 0x330601, 0x330602, 0x330701, 0x330702, 0x530005, 0x530006, 0x530007, 0x610022, 0x630009, 0x650003, 0x670003, 0x7c0000], SubDets = [] to stream physics_pebtestfour
--> Stream tags  = {pebtesttwo, calibration, obeysLB=1, robs=[], dets = [0x65 0x66 ]}
                   {pebtestone, physics, obeysLB=1, robs=[0x0042002e 0x00420060 0x00420064 0x007c0000 ], dets = []}
                   {pebtestfive, physics, obeysLB=1, robs=[0x00610000 0x00610001 0x00610008 0x00610009 0x00650000 0x00650001 0x00650002 0x00650003 0x007c0000 ], dets = []}
                   {Main, physics, obeysLB=1, robs=[], dets = []}
                   {pebtestfour, physics, obeysLB=1, robs=[0x00111711 0x00111712 0x00111747 0x00111748 0x00112556 0x00112557 0x00130314 0x00130315 0x00130316 0x00130317 0x00140080 0x00140081 0x00140082 0x00140083 0x0021000c 0x0021000d 0x0021000e 0x0021000f 0x0023000e 0x0023000f 0x00310700 0x00310800 0x00330601 0x00330602 0x00330701 0x00330702 0x00530005 0x00530006 0x00530007 0x00610022 0x00630009 0x00650003 0x00670003 0x007c0000 ], dets = []}
HLTRMakerAlg.HLTResultMTMaker.StreamT...7   0     DEBUG Chain HLT_e5_etcut_pebtestone ID#2665696149 adds PEBInfo ROBs = [0x42002e, 0x420060, 0x420064, 0x7c0000], SubDets = [] to stream physics_pebtestone
HLTRMakerAlg.HLTResultMTMaker.StreamT...7   0     DEBUG Chain HLT_e3_etcut_pebtestone ID#3649724623 adds PEBInfo ROBs = [0x42002e, 0x420060, 0x420064, 0x7c0000], SubDets = [] to stream physics_pebtestone
HLTRMakerAlg.HLTResultMTMaker.StreamT...7   0     DEBUG Chain HLT_e5_etcut_pebtestfour ID#55532747 adds PEBInfo ROBs = [0x111711, 0x111712, 0x111747, 0x111748, 0x111805, 0x111806, 0x111807, 0x111808, 0x111815, 0x111817, 0x111845, 0x111846, 0x111857, 0x112514, 0x112515, 0x112554, 0x112555, 0x112556, 0x112557, 0x120209, 0x120211, 0x121611, 0x130008, 0x130307, 0x130308, 0x130309, 0x130310, 0x130314, 0x130315, 0x130316, 0x130317, 0x140060, 0x140061, 0x140062, 0x140063, 0x140080, 0x140081, 0x140082, 0x140083, 0x140150, 0x140152, 0x140153, 0x210008, 0x21000a, 0x21000b, 0x21000c, 0x21000d, 0x21000e, 0x21000f, 0x220008, 0x22000a, 0x22000b, 0x23000e, 0x23000f, 0x240006, 0x240008, 0x240009, 0x24000a, 0x24000d, 0x240107, 0x310300, 0x310400, 0x310500, 0x310700, 0x310800, 0x330601, 0x330602, 0x330701, 0x330702, 0x510002, 0x510003, 0x530005, 0x530006, 0x530007, 0x610001, 0x610008, 0x610018, 0x610022, 0x630009, 0x640025, 0x650001, 0x650003, 0x670003, 0x680008, 0x680009, 0x6a008a, 0x7c0000], SubDets = [] to stream physics_pebtestfour
--> Stream tags  = {pebtestone, physics, obeysLB=1, robs=[0x0042002e 0x00420060 0x00420064 0x007c0000 ], dets = []}
                   {Main, physics, obeysLB=1, robs=[], dets = []}
                   {pebtestfour, physics, obeysLB=1, robs=[0x00111711 0x00111712 0x00111747 0x00111748 0x00111805 0x00111806 0x00111807 0x00111808 0x00111815 0x00111817 0x00111845 0x00111846 0x00111857 0x00112514 0x00112515 0x00112554 0x00112555 0x00112556 0x00112557 0x00120209 0x00120211 0x00121611 0x00130008 0x00130307 0x00130308 0x00130309 0x00130310 0x00130314 0x00130315 0x00130316 0x00130317 0x00140060 0x00140061 0x00140062 0x00140063 0x00140080 0x00140081 0x00140082 0x00140083 0x00140150 0x00140152 0x00140153 0x00210008 0x0021000a 0x0021000b 0x0021000c 0x0021000d 0x0021000e 0x0021000f 0x00220008 0x0022000a 0x0022000b 0x0023000e 0x0023000f 0x00240006 0x00240008 0x00240009 0x0024000a 0x0024000d 0x00240107 0x00310300 0x00310400 0x00310500 0x00310700 0x00310800 0x00330601 0x00330602 0x00330701 0x00330702 0x00510002 0x00510003 0x00530005 0x00530006 0x00530007 0x00610001 0x00610008 0x00610018 0x00610022 0x00630009 0x00640025 0x00650001 0x00650003 0x00670003 0x00680008 0x00680009 0x006a008a 0x007c0000 ], dets = []}
HLTRMakerAlg.HLTResultMTMaker.StreamT...8   0     DEBUG Chain HLT_e5_etcut_pebtestone ID#2665696149 adds PEBInfo ROBs = [0x42002e, 0x420060, 0x420064, 0x7c0000], SubDets = [] to stream physics_pebtestone
HLTRMakerAlg.HLTResultMTMaker.StreamT...8   0     DEBUG Chain HLT_e3_etcut_pebtestone ID#3649724623 adds PEBInfo ROBs = [0x42002e, 0x420060, 0x420064, 0x7c0000], SubDets = [] to stream physics_pebtestone
HLTRMakerAlg.HLTResultMTMaker.StreamT...8   0     DEBUG Chain HLT_e5_etcut_pebtestfour ID#55532747 adds PEBInfo ROBs = [0x111707, 0x111708, 0x111749, 0x111750, 0x111818, 0x111819, 0x111860, 0x111861, 0x112418, 0x112419, 0x112458, 0x112459, 0x112518, 0x112558, 0x112559, 0x120217, 0x120219, 0x130018, 0x130019, 0x130020, 0x130021, 0x130107, 0x130108, 0x130316, 0x130317, 0x140080, 0x140081, 0x140083, 0x140090, 0x140091, 0x140093, 0x140180, 0x140181, 0x140182, 0x140183, 0x140190, 0x140191, 0x140192, 0x140193, 0x21000e, 0x21000f, 0x210101, 0x210102, 0x220000, 0x220003, 0x220004, 0x220005, 0x230000, 0x230001, 0x230002, 0x230005, 0x23000a, 0x23000b, 0x23000d, 0x23000e, 0x23000f, 0x321c00, 0x321d00, 0x321e00, 0x330801, 0x330802, 0x330901, 0x330902, 0x341c01, 0x341d01, 0x52001a, 0x52001b, 0x52001c, 0x530007, 0x530008, 0x530009, 0x54001a, 0x54001b, 0x54001c, 0x620027, 0x620031, 0x630012, 0x630052, 0x66000e, 0x670004, 0x670005, 0x7c0000], SubDets = [] to stream physics_pebtestfour
--> Stream tags  = {pebtestone, physics, obeysLB=1, robs=[0x0042002e 0x00420060 0x00420064 0x007c0000 ], dets = []}
                   {Main, physics, obeysLB=1, robs=[], dets = []}
                   {pebtestfour, physics, obeysLB=1, robs=[0x00111707 0x00111708 0x00111749 0x00111750 0x00111818 0x00111819 0x00111860 0x00111861 0x00112418 0x00112419 0x00112458 0x00112459 0x00112518 0x00112558 0x00112559 0x00120217 0x00120219 0x00130018 0x00130019 0x00130020 0x00130021 0x00130107 0x00130108 0x00130316 0x00130317 0x00140080 0x00140081 0x00140083 0x00140090 0x00140091 0x00140093 0x00140180 0x00140181 0x00140182 0x00140183 0x00140190 0x00140191 0x00140192 0x00140193 0x0021000e 0x0021000f 0x00210101 0x00210102 0x00220000 0x00220003 0x00220004 0x00220005 0x00230000 0x00230001 0x00230002 0x00230005 0x0023000a 0x0023000b 0x0023000d 0x0023000e 0x0023000f 0x00321c00 0x00321d00 0x00321e00 0x00330801 0x00330802 0x00330901 0x00330902 0x00341c01 0x00341d01 0x0052001a 0x0052001b 0x0052001c 0x00530007 0x00530008 0x00530009 0x0054001a 0x0054001b 0x0054001c 0x00620027 0x00620031 0x00630012 0x00630052 0x0066000e 0x00670004 0x00670005 0x007c0000 ], dets = []}
HLTRMakerAlg.HLTResultMTMaker.StreamT...10  0     DEBUG Chain HLT_e5_etcut_pebtestone ID#2665696149 adds PEBInfo ROBs = [0x42002e, 0x420060, 0x420064, 0x7c0000], SubDets = [] to stream physics_pebtestone
HLTRMakerAlg.HLTResultMTMaker.StreamT...10  0     DEBUG Chain HLT_e3_etcut_pebtestone ID#3649724623 adds PEBInfo ROBs = [0x42002e, 0x420060, 0x420064, 0x7c0000], SubDets = [] to stream physics_pebtestone
HLTRMakerAlg.HLTResultMTMaker.StreamT...10  0     DEBUG Chain HLT_e5_etcut_pebtestfour ID#55532747 adds PEBInfo ROBs = [0x111707, 0x111708, 0x111720, 0x111721, 0x111745, 0x111746, 0x111749, 0x111750, 0x111751, 0x111811, 0x111849, 0x111851, 0x112420, 0x112421, 0x112445, 0x112518, 0x112520, 0x112551, 0x112552, 0x112558, 0x112559, 0x112560, 0x120215, 0x120217, 0x120219, 0x121615, 0x130105, 0x130106, 0x130107, 0x130108, 0x130109, 0x130110, 0x130111, 0x130112, 0x130114, 0x130115, 0x130316, 0x130317, 0x130318, 0x130319, 0x140080, 0x140081, 0x140083, 0x140090, 0x140091, 0x140093, 0x140100, 0x140101, 0x140103, 0x140110, 0x140111, 0x140113, 0x140200, 0x140201, 0x140202, 0x140203, 0x210006, 0x210007, 0x210008, 0x210009, 0x21000e, 0x21000f, 0x210101, 0x210102, 0x220006, 0x220007, 0x220008, 0x220009, 0x230000, 0x230001, 0x230002, 0x230003, 0x230004, 0x230005, 0x230006, 0x230007, 0x23000a, 0x23000b, 0x23000d, 0x23000e, 0x23000f, 0x230105, 0x23010b, 0x310100, 0x312000, 0x320100, 0x322000, 0x330801, 0x330802, 0x330901, 0x330902, 0x330b02, 0x330c02, 0x520000, 0x52001e, 0x52001f, 0x530007, 0x530008, 0x530009, 0x620000, 0x630012, 0x63001a, 0x630023, 0x63002a, 0x630052, 0x630063, 0x630071, 0x660000, 0x66000f, 0x670004, 0x670005, 0x670006, 0x690085, 0x690086, 0x7c0000], SubDets = [] to stream physics_pebtestfour
--> Stream tags  = {pebtestone, physics, obeysLB=1, robs=[0x0042002e 0x00420060 0x00420064 0x007c0000 ], dets = []}
                   {Main, physics, obeysLB=1, robs=[], dets = []}
                   {pebtestfour, physics, obeysLB=1, robs=[0x00111707 0x00111708 0x00111720 0x00111721 0x00111745 0x00111746 0x00111749 0x00111750 0x00111751 0x00111811 0x00111849 0x00111851 0x00112420 0x00112421 0x00112445 0x00112518 0x00112520 0x00112551 0x00112552 0x00112558 0x00112559 0x00112560 0x00120215 0x00120217 0x00120219 0x00121615 0x00130105 0x00130106 0x00130107 0x00130108 0x00130109 0x00130110 0x00130111 0x00130112 0x00130114 0x00130115 0x00130316 0x00130317 0x00130318 0x00130319 0x00140080 0x00140081 0x00140083 0x00140090 0x00140091 0x00140093 0x00140100 0x00140101 0x00140103 0x00140110 0x00140111 0x00140113 0x00140200 0x00140201 0x00140202 0x00140203 0x00210006 0x00210007 0x00210008 0x00210009 0x0021000e 0x0021000f 0x00210101 0x00210102 0x00220006 0x00220007 0x00220008 0x00220009 0x00230000 0x00230001 0x00230002 0x00230003 0x00230004 0x00230005 0x00230006 0x00230007 0x0023000a 0x0023000b 0x0023000d 0x0023000e 0x0023000f 0x00230105 0x0023010b 0x00310100 0x00312000 0x00320100 0x00322000 0x00330801 0x00330802 0x00330901 0x00330902 0x00330b02 0x00330c02 0x00520000 0x0052001e 0x0052001f 0x00530007 0x00530008 0x00530009 0x00620000 0x00630012 0x0063001a 0x00630023 0x0063002a 0x00630052 0x00630063 0x00630071 0x00660000 0x0066000f 0x00670004 0x00670005 0x00670006 0x00690085 0x00690086 0x007c0000 ], dets = []}
HLTRMakerAlg.HLTResultMTMaker.StreamT...11  0     DEBUG Chain HLT_e5_etcut_pebtestone ID#2665696149 adds PEBInfo ROBs = [0x42002e, 0x420060, 0x420064, 0x7c0000], SubDets = [] to stream physics_pebtestone
HLTRMakerAlg.HLTResultMTMaker.StreamT...11  0     DEBUG Chain HLT_e3_etcut_pebtestone ID#3649724623 adds PEBInfo ROBs = [0x42002e, 0x420060, 0x420064, 0x7c0000], SubDets = [] to stream physics_pebtestone
HLTRMakerAlg.HLTResultMTMaker.StreamT...11  0     DEBUG Chain HLT_e5_etcut_pebtestfour ID#55532747 adds PEBInfo ROBs = [0x111718, 0x111719, 0x111758, 0x111759, 0x112456, 0x112457, 0x130014, 0x130015, 0x130016, 0x130017, 0x140170, 0x140171, 0x140172, 0x140173, 0x140180, 0x140181, 0x140182, 0x140183, 0x220000, 0x220001, 0x220002, 0x220003, 0x240000, 0x240007, 0x341a01, 0x341a02, 0x341b01, 0x341b02, 0x540018, 0x540019, 0x54001a, 0x64000e, 0x64001e, 0x68000b, 0x7c0000], SubDets = [] to stream physics_pebtestfour
--> Stream tags  = {pebtestone, physics, obeysLB=1, robs=[0x0042002e 0x00420060 0x00420064 0x007c0000 ], dets = []}
                   {pebtestfour, physics, obeysLB=1, robs=[0x00111718 0x00111719 0x00111758 0x00111759 0x00112456 0x00112457 0x00130014 0x00130015 0x00130016 0x00130017 0x00140170 0x00140171 0x00140172 0x00140173 0x00140180 0x00140181 0x00140182 0x00140183 0x00220000 0x00220001 0x00220002 0x00220003 0x00240000 0x00240007 0x00341a01 0x00341a02 0x00341b01 0x00341b02 0x00540018 0x00540019 0x0054001a 0x0064000e 0x0064001e 0x0068000b 0x007c0000 ], dets = []}
HLTRMakerAlg.HLTResultMTMaker.StreamT...12  0     DEBUG Chain HLT_e5_etcut_pebtestone ID#2665696149 adds PEBInfo ROBs = [0x42002e, 0x420060, 0x420064, 0x7c0000], SubDets = [] to stream physics_pebtestone
HLTRMakerAlg.HLTResultMTMaker.StreamT...12  0     DEBUG Chain HLT_e3_etcut_pebtestone ID#3649724623 adds PEBInfo ROBs = [0x42002e, 0x420060, 0x420064, 0x7c0000], SubDets = [] to stream physics_pebtestone
HLTRMakerAlg.HLTResultMTMaker.StreamT...12  0     DEBUG Chain HLT_e5_etcut_pebtestfour ID#55532747 adds PEBInfo ROBs = [0x111705, 0x111706, 0x111760, 0x111761, 0x111805, 0x111806, 0x111815, 0x111817, 0x111818, 0x111819, 0x111820, 0x111821, 0x111857, 0x111860, 0x111861, 0x112415, 0x112421, 0x112452, 0x112455, 0x112458, 0x112459, 0x112460, 0x112461, 0x112507, 0x112511, 0x112512, 0x112514, 0x112515, 0x112547, 0x120209, 0x120211, 0x121611, 0x130007, 0x130008, 0x130009, 0x130010, 0x130011, 0x130012, 0x130018, 0x130019, 0x130020, 0x130021, 0x130105, 0x130106, 0x130307, 0x130308, 0x140060, 0x140061, 0x140062, 0x140063, 0x140150, 0x140152, 0x140153, 0x140160, 0x140162, 0x140163, 0x140180, 0x140181, 0x140182, 0x140183, 0x140190, 0x140191, 0x140192, 0x140193, 0x210004, 0x210006, 0x210008, 0x210009, 0x21000a, 0x21000b, 0x220004, 0x220005, 0x220006, 0x220007, 0x220008, 0x220009, 0x22000a, 0x22000b, 0x240006, 0x240008, 0x240009, 0x24000a, 0x24000b, 0x24000c, 0x24000d, 0x24000f, 0x240107, 0x310200, 0x310300, 0x320200, 0x320300, 0x321d00, 0x321e00, 0x321f00, 0x341502, 0x341602, 0x341702, 0x341c01, 0x341d01, 0x341e01, 0x510000, 0x510001, 0x510002, 0x52001b, 0x52001c, 0x52001d, 0x54001b, 0x54001c, 0x54001d, 0x610000, 0x610008, 0x620017, 0x62001f, 0x620027, 0x620031, 0x64001d, 0x640025, 0x640026, 0x64002d, 0x640033, 0x640065, 0x640066, 0x650000, 0x650001, 0x66000e, 0x66000f, 0x680008, 0x680009, 0x68000a, 0x6a008a, 0x6a008b, 0x6a008c, 0x7c0000], SubDets = [] to stream physics_pebtestfour
--> Stream tags  = {pebtestone, physics, obeysLB=1, robs=[0x0042002e 0x00420060 0x00420064 0x007c0000 ], dets = []}
                   {Main, physics, obeysLB=1, robs=[], dets = []}
                   {pebtestfour, physics, obeysLB=1, robs=[0x00111705 0x00111706 0x00111760 0x00111761 0x00111805 0x00111806 0x00111815 0x00111817 0x00111818 0x00111819 0x00111820 0x00111821 0x00111857 0x00111860 0x00111861 0x00112415 0x00112421 0x00112452 0x00112455 0x00112458 0x00112459 0x00112460 0x00112461 0x00112507 0x00112511 0x00112512 0x00112514 0x00112515 0x00112547 0x00120209 0x00120211 0x00121611 0x00130007 0x00130008 0x00130009 0x00130010 0x00130011 0x00130012 0x00130018 0x00130019 0x00130020 0x00130021 0x00130105 0x00130106 0x00130307 0x00130308 0x00140060 0x00140061 0x00140062 0x00140063 0x00140150 0x00140152 0x00140153 0x00140160 0x00140162 0x00140163 0x00140180 0x00140181 0x00140182 0x00140183 0x00140190 0x00140191 0x00140192 0x00140193 0x00210004 0x00210006 0x00210008 0x00210009 0x0021000a 0x0021000b 0x00220004 0x00220005 0x00220006 0x00220007 0x00220008 0x00220009 0x0022000a 0x0022000b 0x00240006 0x00240008 0x00240009 0x0024000a 0x0024000b 0x0024000c 0x0024000d 0x0024000f 0x00240107 0x00310200 0x00310300 0x00320200 0x00320300 0x00321d00 0x00321e00 0x00321f00 0x00341502 0x00341602 0x00341702 0x00341c01 0x00341d01 0x00341e01 0x00510000 0x00510001 0x00510002 0x0052001b 0x0052001c 0x0052001d 0x0054001b 0x0054001c 0x0054001d 0x00610000 0x00610008 0x00620017 0x0062001f 0x00620027 0x00620031 0x0064001d 0x00640025 0x00640026 0x0064002d 0x00640033 0x00640065 0x00640066 0x00650000 0x00650001 0x0066000e 0x0066000f 0x00680008 0x00680009 0x0068000a 0x006a008a 0x006a008b 0x006a008c 0x007c0000 ], dets = []}
HLTRMakerAlg.HLTResultMTMaker.StreamT...13  0     DEBUG Chain HLT_e5_etcut_pebtestone ID#2665696149 adds PEBInfo ROBs = [0x42002e, 0x420060, 0x420064, 0x7c0000], SubDets = [] to stream physics_pebtestone
HLTRMakerAlg.HLTResultMTMaker.StreamT...13  0     DEBUG Chain HLT_e3_etcut_pebtestone ID#3649724623 adds PEBInfo ROBs = [0x42002e, 0x420060, 0x420064, 0x7c0000], SubDets = [] to stream physics_pebtestone
HLTRMakerAlg.HLTResultMTMaker.StreamT...13  0     DEBUG Chain HLT_e5_etcut_pebtestfour ID#55532747 adds PEBInfo ROBs = [0x111817, 0x111818, 0x111819, 0x111858, 0x111859, 0x112415, 0x112418, 0x112419, 0x112452, 0x112458, 0x112459, 0x112507, 0x112547, 0x120209, 0x121611, 0x130009, 0x130010, 0x130016, 0x130017, 0x130018, 0x130019, 0x140150, 0x140152, 0x140153, 0x140160, 0x140162, 0x140163, 0x140180, 0x140181, 0x140182, 0x140183, 0x220000, 0x220003, 0x220004, 0x220005, 0x240000, 0x240007, 0x240008, 0x240009, 0x24000a, 0x24000b, 0x24000c, 0x24000d, 0x321c00, 0x321d00, 0x341602, 0x341702, 0x341b01, 0x341c01, 0x52001a, 0x52001b, 0x54001a, 0x54001b, 0x620027, 0x62002e, 0x620031, 0x640007, 0x640025, 0x64002d, 0x640065, 0x66000d, 0x66000e, 0x680009, 0x68000b, 0x6a008a, 0x6a008b, 0x7c0000], SubDets = [] to stream physics_pebtestfour
--> Stream tags  = {pebtestone, physics, obeysLB=1, robs=[0x0042002e 0x00420060 0x00420064 0x007c0000 ], dets = []}
                   {Main, physics, obeysLB=1, robs=[], dets = []}
                   {pebtestfour, physics, obeysLB=1, robs=[0x00111817 0x00111818 0x00111819 0x00111858 0x00111859 0x00112415 0x00112418 0x00112419 0x00112452 0x00112458 0x00112459 0x00112507 0x00112547 0x00120209 0x00121611 0x00130009 0x00130010 0x00130016 0x00130017 0x00130018 0x00130019 0x00140150 0x00140152 0x00140153 0x00140160 0x00140162 0x00140163 0x00140180 0x00140181 0x00140182 0x00140183 0x00220000 0x00220003 0x00220004 0x00220005 0x00240000 0x00240007 0x00240008 0x00240009 0x0024000a 0x0024000b 0x0024000c 0x0024000d 0x00321c00 0x00321d00 0x00341602 0x00341702 0x00341b01 0x00341c01 0x0052001a 0x0052001b 0x0054001a 0x0054001b 0x00620027 0x0062002e 0x00620031 0x00640007 0x00640025 0x0064002d 0x00640065 0x0066000d 0x0066000e 0x00680009 0x0068000b 0x006a008a 0x006a008b 0x007c0000 ], dets = []}
HLTRMakerAlg.HLTResultMTMaker.StreamT...14  0     DEBUG Chain HLT_e5_etcut_pebtestone ID#2665696149 adds PEBInfo ROBs = [0x42002e, 0x420060, 0x420064, 0x7c0000], SubDets = [] to stream physics_pebtestone
HLTRMakerAlg.HLTResultMTMaker.StreamT...14  0     DEBUG Chain HLT_e3_etcut_pebtestone ID#3649724623 adds PEBInfo ROBs = [0x42002e, 0x420060, 0x420064, 0x7c0000], SubDets = [] to stream physics_pebtestone
HLTRMakerAlg.HLTResultMTMaker.StreamT...14  0     DEBUG Chain HLT_e5_etcut_pebtestfour ID#55532747 adds PEBInfo ROBs = [0x111705, 0x111706, 0x111805, 0x111806, 0x112511, 0x112512, 0x112514, 0x112515, 0x130307, 0x130308, 0x140060, 0x140061, 0x140062, 0x140063, 0x210008, 0x210009, 0x21000a, 0x21000b, 0x220008, 0x220009, 0x22000a, 0x22000b, 0x310200, 0x310300, 0x320200, 0x320300, 0x510000, 0x510001, 0x510002, 0x610000, 0x610008, 0x650000, 0x650001, 0x7c0000], SubDets = [] to stream physics_pebtestfour
--> Stream tags  = {pebtestone, physics, obeysLB=1, robs=[0x0042002e 0x00420060 0x00420064 0x007c0000 ], dets = []}
                   {pebtestfour, physics, obeysLB=1, robs=[0x00111705 0x00111706 0x00111805 0x00111806 0x00112511 0x00112512 0x00112514 0x00112515 0x00130307 0x00130308 0x00140060 0x00140061 0x00140062 0x00140063 0x00210008 0x00210009 0x0021000a 0x0021000b 0x00220008 0x00220009 0x0022000a 0x0022000b 0x00310200 0x00310300 0x00320200 0x00320300 0x00510000 0x00510001 0x00510002 0x00610000 0x00610008 0x00650000 0x00650001 0x007c0000 ], dets = []}
HLTRMakerAlg.HLTResultMTMaker.StreamT...15  0     DEBUG Chain HLT_mu6_pebtesttwo ID#1084648233 adds PEBInfo ROBs = [], SubDets = [0x65, 0x66] to stream calibration_pebtesttwo
HLTRMakerAlg.HLTResultMTMaker.StreamT...15  0     DEBUG Chain HLT_mu6_pebtestfive ID#232220309 adds PEBInfo ROBs = [0x610011, 0x610012, 0x610019, 0x650002, 0x650003, 0x650004, 0x7c0000], SubDets = [] to stream physics_pebtestfive
--> Stream tags  = {pebtesttwo, calibration, obeysLB=1, robs=[], dets = [0x65 0x66 ]}
                   {pebtestfive, physics, obeysLB=1, robs=[0x00610011 0x00610012 0x00610019 0x00650002 0x00650003 0x00650004 0x007c0000 ], dets = []}
HLTRMakerAlg.HLTResultMTMaker.StreamT...16  0     DEBUG Chain HLT_e3_etcut_pebtestone ID#3649724623 adds PEBInfo ROBs = [0x42002e, 0x420060, 0x420064, 0x7c0000], SubDets = [] to stream physics_pebtestone
--> Stream tags  = {pebtestone, physics, obeysLB=1, robs=[0x0042002e 0x00420060 0x00420064 0x007c0000 ], dets = []}
HLTRMakerAlg.HLTResultMTMaker.StreamT...17  0     DEBUG Chain HLT_e5_etcut_pebtestone ID#2665696149 adds PEBInfo ROBs = [0x42002e, 0x420060, 0x420064, 0x7c0000], SubDets = [] to stream physics_pebtestone
HLTRMakerAlg.HLTResultMTMaker.StreamT...17  0     DEBUG Chain HLT_e3_etcut_pebtestone ID#3649724623 adds PEBInfo ROBs = [0x42002e, 0x420060, 0x420064, 0x7c0000], SubDets = [] to stream physics_pebtestone
HLTRMakerAlg.HLTResultMTMaker.StreamT...17  0     DEBUG Chain HLT_e5_etcut_pebtestfour ID#55532747 adds PEBInfo ROBs = [0x111805, 0x111806, 0x111807, 0x111808, 0x111811, 0x111845, 0x111846, 0x111849, 0x112445, 0x112514, 0x112515, 0x112554, 0x112555, 0x112560, 0x120217, 0x121615, 0x130109, 0x130110, 0x130111, 0x130112, 0x130307, 0x130308, 0x130309, 0x130310, 0x140060, 0x140061, 0x140062, 0x140063, 0x140100, 0x140101, 0x140103, 0x210008, 0x21000a, 0x21000b, 0x220008, 0x22000a, 0x22000b, 0x230002, 0x230003, 0x230004, 0x230005, 0x230006, 0x310300, 0x310400, 0x310500, 0x330b02, 0x330c02, 0x510002, 0x510003, 0x610001, 0x610008, 0x610018, 0x630023, 0x63002a, 0x630063, 0x650001, 0x670005, 0x690085, 0x690086, 0x7c0000], SubDets = [] to stream physics_pebtestfour
--> Stream tags  = {pebtestone, physics, obeysLB=1, robs=[0x0042002e 0x00420060 0x00420064 0x007c0000 ], dets = []}
                   {Main, physics, obeysLB=1, robs=[], dets = []}
                   {pebtestfour, physics, obeysLB=1, robs=[0x00111805 0x00111806 0x00111807 0x00111808 0x00111811 0x00111845 0x00111846 0x00111849 0x00112445 0x00112514 0x00112515 0x00112554 0x00112555 0x00112560 0x00120217 0x00121615 0x00130109 0x00130110 0x00130111 0x00130112 0x00130307 0x00130308 0x00130309 0x00130310 0x00140060 0x00140061 0x00140062 0x00140063 0x00140100 0x00140101 0x00140103 0x00210008 0x0021000a 0x0021000b 0x00220008 0x0022000a 0x0022000b 0x00230002 0x00230003 0x00230004 0x00230005 0x00230006 0x00310300 0x00310400 0x00310500 0x00330b02 0x00330c02 0x00510002 0x00510003 0x00610001 0x00610008 0x00610018 0x00630023 0x0063002a 0x00630063 0x00650001 0x00670005 0x00690085 0x00690086 0x007c0000 ], dets = []}
HLTRMakerAlg.HLTResultMTMaker.StreamT...19  0     DEBUG Chain HLT_e5_etcut_pebtestone ID#2665696149 adds PEBInfo ROBs = [0x42002e, 0x420060, 0x420064, 0x7c0000], SubDets = [] to stream physics_pebtestone
HLTRMakerAlg.HLTResultMTMaker.StreamT...19  0     DEBUG Chain HLT_e3_etcut_pebtestone ID#3649724623 adds PEBInfo ROBs = [0x42002e, 0x420060, 0x420064, 0x7c0000], SubDets = [] to stream physics_pebtestone
HLTRMakerAlg.HLTResultMTMaker.StreamT...19  0     DEBUG Chain HLT_e5_etcut_pebtestfour ID#55532747 adds PEBInfo ROBs = [0x111707, 0x111708, 0x111749, 0x111750, 0x111758, 0x111759, 0x111858, 0x111859, 0x112418, 0x112419, 0x112456, 0x112457, 0x112518, 0x112558, 0x112559, 0x120217, 0x120219, 0x130016, 0x130017, 0x130018, 0x130019, 0x130107, 0x130108, 0x130316, 0x130317, 0x140080, 0x140081, 0x140083, 0x140090, 0x140091, 0x140093, 0x140170, 0x140171, 0x140172, 0x140173, 0x140180, 0x140181, 0x140182, 0x140183, 0x21000e, 0x21000f, 0x210101, 0x210102, 0x220000, 0x220001, 0x220002, 0x220003, 0x230000, 0x230001, 0x230002, 0x230005, 0x23000a, 0x23000b, 0x23000d, 0x23000e, 0x23000f, 0x240000, 0x240007, 0x321b00, 0x321c00, 0x330801, 0x330802, 0x330901, 0x330902, 0x341a01, 0x341a02, 0x341b01, 0x341b02, 0x530007, 0x530008, 0x530009, 0x540019, 0x54001a, 0x54001b, 0x630012, 0x630052, 0x640007, 0x64000e, 0x670004, 0x670005, 0x68000b, 0x7c0000], SubDets = [] to stream physics_pebtestfour
--> Stream tags  = {pebtestone, physics, obeysLB=1, robs=[0x0042002e 0x00420060 0x00420064 0x007c0000 ], dets = []}
                   {Main, physics, obeysLB=1, robs=[], dets = []}
                   {pebtestfour, physics, obeysLB=1, robs=[0x00111707 0x00111708 0x00111749 0x00111750 0x00111758 0x00111759 0x00111858 0x00111859 0x00112418 0x00112419 0x00112456 0x00112457 0x00112518 0x00112558 0x00112559 0x00120217 0x00120219 0x00130016 0x00130017 0x00130018 0x00130019 0x00130107 0x00130108 0x00130316 0x00130317 0x00140080 0x00140081 0x00140083 0x00140090 0x00140091 0x00140093 0x00140170 0x00140171 0x00140172 0x00140173 0x00140180 0x00140181 0x00140182 0x00140183 0x0021000e 0x0021000f 0x00210101 0x00210102 0x00220000 0x00220001 0x00220002 0x00220003 0x00230000 0x00230001 0x00230002 0x00230005 0x0023000a 0x0023000b 0x0023000d 0x0023000e 0x0023000f 0x00240000 0x00240007 0x00321b00 0x00321c00 0x00330801 0x00330802 0x00330901 0x00330902 0x00341a01 0x00341a02 0x00341b01 0x00341b02 0x00530007 0x00530008 0x00530009 0x00540019 0x0054001a 0x0054001b 0x00630012 0x00630052 0x00640007 0x0064000e 0x00670004 0x00670005 0x0068000b 0x007c0000 ], dets = []}
